Profile emissions and upstream emissions — profile_emissions • tiltWorkflows
…
result <- profile_emissions(
  companies,
  products,
  europages_companies = europages_companies,
  ecoinvent_activities = ecoinvent_activities,
  ecoinvent_europages = ecoinvent_europages,
  isic = isic_name
)
#> Warning: Splitting `companies` into 4 chunks.

result |> unnest_product()
#> # A tibble: 532 × 32
#>    companies_id       company_name country emission_profile benchmark ep_product
#>    <chr>              <chr>        <chr>   <chr>            <chr>     <chr>     
#>  1 asteria_megalotom… asteria_meg… austria high             all       tent      
#>  2 asteria_megalotom… asteria_meg… austria high             isic_4di… tent      
#>  3 asteria_megalotom… asteria_meg… austria high             tilt_sub… tent      
#>  4 asteria_megalotom… asteria_meg… austria high             unit      tent      
#>  5 asteria_megalotom… asteria_meg… austria NA               unit_isi… tent      
#>  6 asteria_megalotom… asteria_meg… austria high             unit_til… tent      
#>  7 asteria_megalotom… asteria_meg… austria NA               unit_isi… tent      
#>  8 skarn_gallinule    skarn_galli… austria high             all       sheds, co…
#>  9 skarn_gallinule    skarn_galli… austria high             isic_4di… sheds, co…
#> 10 skarn_gallinule    skarn_galli… austria high             tilt_sub… sheds, co…
#> # ℹ 522 more rows
#> # ℹ 26 more variables: matched_activity_name <chr>,
#> #   matched_reference_product <chr>, unit <chr>, multi_match <lgl>,
#> #   matching_certainty <chr>, matching_certainty_company_average <chr>,
#> #   tilt_sector <chr>, tilt_subsector <chr>, isic_4digit <chr>,
#> #   isic_4digit_name <chr>, company_city <chr>, postcode <chr>, address <chr>,
#> #   main_activity <chr>, activity_uuid_product_uuid <chr>, …

result |> unnest_company()
#> # A tibble: 1,728 × 15
#>    companies_id     company_name country emission_profile_share emission_profile
#>    <chr>            <chr>        <chr>                    <dbl> <chr>           
#>  1 asteria_megalot… asteria_meg… austria                      1 high            
#>  2 asteria_megalot… asteria_meg… austria                      0 medium          
#>  3 asteria_megalot… asteria_meg… austria                      0 low             
#>  4 asteria_megalot… asteria_meg… austria                      0 NA              
#>  5 asteria_megalot… asteria_meg… austria                      1 high            
#>  6 asteria_megalot… asteria_meg… austria                      0 medium          
#>  7 asteria_megalot… asteria_meg… austria                      0 low             
#>  8 asteria_megalot… asteria_meg… austria                      0 NA              
#>  9 asteria_megalot… asteria_meg… austria                      1 high            
#> 10 asteria_megalot… asteria_meg… austria                      0 medium          
#> # ℹ 1,718 more rows
#> # ℹ 10 more variables: benchmark <chr>,
#> #   matching_certainty_company_average <chr>, company_city <chr>,
#> #   postcode <chr>, address <chr>, main_activity <chr>,
#> #   profile_ranking_avg <dbl>, min_headcount <dbl>, max_headcount <dbl>,
#> #   co2_avg <dbl>
…
result <- profile_emissions_upstream(
  companies,
  inputs,
  europages_companies = europages_companies,
  ecoinvent_activities = ecoinvent_activities,
  ecoinvent_inputs = ecoinvent_inputs,
  ecoinvent_europages = ecoinvent_europages,
  isic = isic_name
)
#> Warning: Splitting `companies` into 4 chunks.

result |> unnest_product()
#> # A tibble: 3,431 × 31
#>    companies_id company_name country emission_upstream_pr…¹ benchmark ep_product
#>    <chr>        <chr>        <chr>   <chr>                  <chr>     <chr>     
#>  1 asteria_meg… asteria_meg… austria high                   all       tent      
#>  2 asteria_meg… asteria_meg… austria high                   input_is… tent      
#>  3 asteria_meg… asteria_meg… austria high                   input_ti… tent      
#>  4 asteria_meg… asteria_meg… austria high                   input_un… tent      
#>  5 asteria_meg… asteria_meg… austria high                   input_un… tent      
#>  6 skarn_galli… skarn_galli… austria high                   all       sheds, co…
#>  7 skarn_galli… skarn_galli… austria high                   input_is… sheds, co…
#>  8 skarn_galli… skarn_galli… austria high                   input_ti… sheds, co…
#>  9 skarn_galli… skarn_galli… austria high                   input_un… sheds, co…
#> 10 skarn_galli… skarn_galli… austria high                   input_un… sheds, co…
#> # ℹ 3,421 more rows
#> # ℹ abbreviated name: ¹​emission_upstream_profile
#> # ℹ 25 more variables: matched_activity_name <chr>,
#> #   matched_reference_product <chr>, unit <chr>, multi_match <lgl>,
#> #   matching_certainty <chr>, matching_certainty_company_average <chr>,
#> #   input_name <chr>, input_unit <chr>, input_tilt_sector <chr>,
#> #   input_tilt_subsector <chr>, input_isic_4digit <chr>, …

result |> unnest_company()
#> # A tibble: 1,728 × 13
#>    companies_id         company_name company_city country emission_upstream_pr…¹
#>    <chr>                <chr>        <chr>        <chr>                    <dbl>
#>  1 asteria_megalotomus… asteria_meg… wilhelmsburg austria                      1
#>  2 asteria_megalotomus… asteria_meg… wilhelmsburg austria                      0
#>  3 asteria_megalotomus… asteria_meg… wilhelmsburg austria                      0
#>  4 asteria_megalotomus… asteria_meg… wilhelmsburg austria                      0
#>  5 asteria_megalotomus… asteria_meg… wilhelmsburg austria                      1
#>  6 asteria_megalotomus… asteria_meg… wilhelmsburg austria                      0
#>  7 asteria_megalotomus… asteria_meg… wilhelmsburg austria                      0
#>  8 asteria_megalotomus… asteria_meg… wilhelmsburg austria                      0
#>  9 asteria_megalotomus… asteria_meg… wilhelmsburg austria                      1
#> 10 asteria_megalotomus… asteria_meg… wilhelmsburg austria                      0
#> # ℹ 1,718 more rows
#> # ℹ abbreviated name: ¹​emission_upstream_profile_share
#> # ℹ 8 more variables: emission_upstream_profile <chr>, benchmark <chr>,
#> #   matching_certainty_company_average <chr>, postcode <chr>, address <chr>,
#> #   main_activity <chr>, profile_ranking_avg <dbl>, co2_avg <dbl>
…
