profile_emissions_upstream.Rmd • tiltWorkflows
…
Results

Overview and save results at each level.

emissions_profile_upstream |>
  unnest_product() |>
  print() |>
  write_csv(path(params$output, "emissions_profile_upstream_at_product_level.csv"))
#> # A tibble: 3,966 × 31
#>    companies_id                       company_name    country emission_upstream_pr…¹ benchmark ep_product matched_activity_name matched_reference_pr…² unit  multi_match matching_certainty matching_certainty_c…³ input_name input_unit input_tilt_sector input_tilt_subsector input_isic_4digit input_isic_4digit_name company_city postcode address main_activity activity_uuid_produc…⁴ profile_ranking ei_input_geography min_headcount max_headcount ei_geography input_activity_uuid_…⁵ co2e_lower co2e_upper
#>    <chr>                              <chr>           <chr>   <chr>                  <chr>     <chr>      <chr>                 <chr>                  <chr> <lgl>       <chr>              <chr>                  <chr>      <chr>      <chr>             <chr>                <chr>             <chr>                  <chr>        <chr>    <chr>   <chr>         <chr>                            <dbl> <chr>                      <dbl>         <dbl> <chr>        <chr>                       <dbl>      <dbl>
#>  1 asteria_megalotomusquinquespinosus asteria_megalo… austria high                   all       tent       market for shed, lar… shed, large, wood, no… m2    FALSE       low                low                    shed, lar… m2         construction      construction reside… '4100'            Construction of build… wilhelmsburg 3150     flesch… wholesaler    76269c17-78d6-420b-99…           0.938 tilt_land                      1            10 tilt_world   44e5e288-4f81-40d0-88…     0.0256 587680710.
#>  2 asteria_megalotomusquinquespinosus asteria_megalo… austria high                   input_is… tent       market for shed, lar… shed, large, wood, no… m2    FALSE       low                low                    shed, lar… m2         construction      construction reside… '4100'            Construction of build… wilhelmsburg 3150     flesch… wholesaler    76269c17-78d6-420b-99…           1     tilt_land                      1            10 tilt_world   44e5e288-4f81-40d0-88…  -206.           867.
#>  3 asteria_megalotomusquinquespinosus asteria_megalo… austria high                   input_ti… tent       market for shed, lar… shed, large, wood, no… m2    FALSE       low                low                    shed, lar… m2         construction      construction reside… '4100'            Construction of build… wilhelmsburg 3150     flesch… wholesaler    76269c17-78d6-420b-99…           1     tilt_land                      1            10 tilt_world   44e5e288-4f81-40d0-88…  -268.           412.
#>  4 asteria_megalotomusquinquespinosus asteria_megalo… austria high                   input_un… tent       market for shed, lar… shed, large, wood, no… m2    FALSE       low                low                    shed, lar… m2         construction      construction reside… '4100'            Construction of build… wilhelmsburg 3150     flesch… wholesaler    76269c17-78d6-420b-99…           1     tilt_land                      1            10 tilt_world   44e5e288-4f81-40d0-88…  -185.           535.
#>  5 asteria_megalotomusquinquespinosus asteria_megalo… austria high                   input_un… tent       market for shed, lar… shed, large, wood, no… m2    FALSE       low                low                    shed, lar… m2         construction      construction reside… '4100'            Construction of build… wilhelmsburg 3150     flesch… wholesaler    76269c17-78d6-420b-99…           1     tilt_land                      1            10 tilt_world   44e5e288-4f81-40d0-88…   220.           880.
#>  6 asteria_megalotomusquinquespinosus asteria_megalo… austria high                   input_un… tent       market for shed, lar… shed, large, wood, no… m2    FALSE       low                low                    shed, lar… m2         construction      construction reside… '4100'            Construction of build… wilhelmsburg 3150     flesch… wholesaler    76269c17-78d6-420b-99…           1     tilt_land                      1            10 tilt_world   44e5e288-4f81-40d0-88…   106.           410.
#>  7 skarn_gallinule                    skarn_gallinule austria high                   all       sheds, co… market for shed, lar… shed, large, wood, no… m2    FALSE       low                low                    shed, lar… m2         construction      construction reside… '4100'            Construction of build… wiener neud… 2355     iz nö-… wholesaler    76269c17-78d6-420b-99…           0.938 tilt_land                      1            10 tilt_world   44e5e288-4f81-40d0-88…     0.0256 587680710.
#>  8 skarn_gallinule                    skarn_gallinule austria high                   input_is… sheds, co… market for shed, lar… shed, large, wood, no… m2    FALSE       low                low                    shed, lar… m2         construction      construction reside… '4100'            Construction of build… wiener neud… 2355     iz nö-… wholesaler    76269c17-78d6-420b-99…           1     tilt_land                      1            10 tilt_world   44e5e288-4f81-40d0-88…  -206.           867.
#>  9 skarn_gallinule                    skarn_gallinule austria high                   input_ti… sheds, co… market for shed, lar… shed, large, wood, no… m2    FALSE       low                low                    shed, lar… m2         construction      construction reside… '4100'            Construction of build… wiener neud… 2355     iz nö-… wholesaler    76269c17-78d6-420b-99…           1     tilt_land                      1            10 tilt_world   44e5e288-4f81-40d0-88…  -268.           412.
#> 10 skarn_gallinule                    skarn_gallinule austria high                   input_un… sheds, co… market for shed, lar… shed, large, wood, no… m2    FALSE       low                low                    shed, lar… m2         construction      construction reside… '4100'            Construction of build… wiener neud… 2355     iz nö-… wholesaler    76269c17-78d6-420b-99…           1     tilt_land                      1            10 tilt_world   44e5e288-4f81-40d0-88…  -185.           535.
#> # ℹ 3,956 more rows
#> # ℹ abbreviated names: ¹​emission_upstream_profile, ²​matched_reference_product, ³​matching_certainty_company_average, ⁴​activity_uuid_product_uuid, ⁵​input_activity_uuid_product_uuid

emissions_profile_upstream |>
  unnest_company() |>
  print() |>
  write_csv(path(params$output, "emissions_profile_upstream_at_company_level.csv"))
#> # A tibble: 1,728 × 13
#>    companies_id                       company_name                       company_city country emission_upstream_profile_share emission_upstream_profile benchmark            matching_certainty_company_average postcode address                                  main_activity profile_ranking_avg co2_avg
#>    <chr>                              <chr>                              <chr>        <chr>                             <dbl> <chr>                     <chr>                <chr>                              <chr>    <chr>                                    <chr>                       <dbl>   <dbl>
#>  1 asteria_megalotomusquinquespinosus asteria_megalotomusquinquespinosus wilhelmsburg austria                               1 high                      all                  low                                3150     fleschplatz 2, top 5 | 3150 wilhelmsburg wholesaler                  0.938    298.
#>  2 asteria_megalotomusquinquespinosus asteria_megalotomusquinquespinosus wilhelmsburg austria                               0 medium                    all                  low                                3150     fleschplatz 2, top 5 | 3150 wilhelmsburg wholesaler                  0.938    298.
#>  3 asteria_megalotomusquinquespinosus asteria_megalotomusquinquespinosus wilhelmsburg austria                               0 low                       all                  low                                3150     fleschplatz 2, top 5 | 3150 wilhelmsburg wholesaler                  0.938    298.
#>  4 asteria_megalotomusquinquespinosus asteria_megalotomusquinquespinosus wilhelmsburg austria                               0 NA                        all                  low                                3150     fleschplatz 2, top 5 | 3150 wilhelmsburg wholesaler                  0.938    298.
#>  5 asteria_megalotomusquinquespinosus asteria_megalotomusquinquespinosus wilhelmsburg austria                               1 high                      input_isic_4digit    low                                3150     fleschplatz 2, top 5 | 3150 wilhelmsburg wholesaler                  1        298.
#>  6 asteria_megalotomusquinquespinosus asteria_megalotomusquinquespinosus wilhelmsburg austria                               0 medium                    input_isic_4digit    low                                3150     fleschplatz 2, top 5 | 3150 wilhelmsburg wholesaler                  1        298.
#>  7 asteria_megalotomusquinquespinosus asteria_megalotomusquinquespinosus wilhelmsburg austria                               0 low                       input_isic_4digit    low                                3150     fleschplatz 2, top 5 | 3150 wilhelmsburg wholesaler                  1        298.
#>  8 asteria_megalotomusquinquespinosus asteria_megalotomusquinquespinosus wilhelmsburg austria                               0 NA                        input_isic_4digit    low                                3150     fleschplatz 2, top 5 | 3150 wilhelmsburg wholesaler                  1        298.
#>  9 asteria_megalotomusquinquespinosus asteria_megalotomusquinquespinosus wilhelmsburg austria                               1 high                      input_tilt_subsector low                                3150     fleschplatz 2, top 5 | 3150 wilhelmsburg wholesaler                  1        298.
#> 10 asteria_megalotomusquinquespinosus asteria_megalotomusquinquespinosus wilhelmsburg austria                               0 medium                    input_tilt_subsector low                                3150     fleschplatz 2, top 5 | 3150 wilhelmsburg wholesaler                  1        298.
#> # ℹ 1,718 more rows
…
