profile_sector.Rmd • tiltWorkflows
…
Results

Overview and save results at each level.

sector_profile |>
  unnest_product() |>
  print() |>
  write_csv(path(params$output, "sector_profile_at_product_level.csv"))
#> # A tibble: 304 × 26
#>    companies_id           company_name country sector_profile reduction_targets scenario  year ep_product             matched_activity_name                                         matched_reference_product                          unit  tilt_sector  tilt_subsector           multi_match matching_certainty matching_certainty_company_average company_city postcode address main_activity activity_uuid_product_uuid           isic_4digit sector_scenario subsector_scenario ei_geography isic_4digit_name
#>    <chr>                  <chr>        <chr>   <chr>                      <dbl> <chr>    <dbl> <chr>                  <chr>                                                         <chr>                                              <chr> <chr>        <chr>                    <lgl>       <chr>              <chr>                              <chr>        <chr>    <chr>   <chr>         <chr>                                <chr>       <chr>           <chr>              <chr>        <chr>           
#>  1 antimonarchy_canine    NA           NA      medium                      0.18 1.5C RPS  2030 tent                   market for shed, large, wood, non-insulated, fire-unprotected shed, large, wood, non-insulated, fire-unprotected m2    construction construction residential NA          NA                 NA                                 NA           NA       NA      NA            76269c17-78d6-420b-991a-aa38c51b45b7 '4100'      buildings       NA                 tilt_world   NA              
#>  2 antimonarchy_canine    NA           NA      high                        0.98 1.5C RPS  2050 tent                   market for shed, large, wood, non-insulated, fire-unprotected shed, large, wood, non-insulated, fire-unprotected m2    construction construction residential NA          NA                 NA                                 NA           NA       NA      NA            76269c17-78d6-420b-991a-aa38c51b45b7 '4100'      buildings       NA                 tilt_world   NA              
#>  3 antimonarchy_canine    NA           NA      high                        0.4  NZ 2050   2030 tent                   market for shed, large, wood, non-insulated, fire-unprotected shed, large, wood, non-insulated, fire-unprotected m2    construction construction residential NA          NA                 NA                                 NA           NA       NA      NA            76269c17-78d6-420b-991a-aa38c51b45b7 '4100'      total           residential        tilt_world   NA              
#>  4 antimonarchy_canine    NA           NA      high                        0.97 NZ 2050   2050 tent                   market for shed, large, wood, non-insulated, fire-unprotected shed, large, wood, non-insulated, fire-unprotected m2    construction construction residential NA          NA                 NA                                 NA           NA       NA      NA            76269c17-78d6-420b-991a-aa38c51b45b7 '4100'      total           residential        tilt_world   NA              
#>  5 celestial_lovebird     NA           NA      medium                      0.18 1.5C RPS  2030 table hire for parties market for shed, large, wood, non-insulated, fire-unprotected shed, large, wood, non-insulated, fire-unprotected m2    construction construction residential NA          NA                 NA                                 NA           NA       NA      NA            76269c17-78d6-420b-991a-aa38c51b45b7 '4100'      buildings       NA                 tilt_world   NA              
#>  6 celestial_lovebird     NA           NA      high                        0.98 1.5C RPS  2050 table hire for parties market for shed, large, wood, non-insulated, fire-unprotected shed, large, wood, non-insulated, fire-unprotected m2    construction construction residential NA          NA                 NA                                 NA           NA       NA      NA            76269c17-78d6-420b-991a-aa38c51b45b7 '4100'      buildings       NA                 tilt_world   NA              
#>  7 celestial_lovebird     NA           NA      high                        0.4  NZ 2050   2030 table hire for parties market for shed, large, wood, non-insulated, fire-unprotected shed, large, wood, non-insulated, fire-unprotected m2    construction construction residential NA          NA                 NA                                 NA           NA       NA      NA            76269c17-78d6-420b-991a-aa38c51b45b7 '4100'      total           residential        tilt_world   NA              
#>  8 celestial_lovebird     NA           NA      high                        0.97 NZ 2050   2050 table hire for parties market for shed, large, wood, non-insulated, fire-unprotected shed, large, wood, non-insulated, fire-unprotected m2    construction construction residential NA          NA                 NA                                 NA           NA       NA      NA            76269c17-78d6-420b-991a-aa38c51b45b7 '4100'      total           residential        tilt_world   NA              
#>  9 nonphilosophical_llama NA           NA      low                         0.09 1.5C RPS  2030 surface engineering    market for deep drawing, steel, 10000 kN press, automode      deep drawing, steel, 10000 kN press, automode      kg    metals       other metals             NA          NA                 NA                                 NA           NA       NA      NA            833caa78-30df-4374-900f-7f88ab44075b '2591'      industry        other industry     tilt_world   NA              
#> 10 nonphilosophical_llama NA           NA      high                        0.95 1.5C RPS  2050 surface engineering    market for deep drawing, steel, 10000 kN press, automode      deep drawing, steel, 10000 kN press, automode      kg    metals       other metals             NA          NA                 NA                                 NA           NA       NA      NA            833caa78-30df-4374-900f-7f88ab44075b '2591'      industry        other industry     tilt_world   NA              
#> # ℹ 294 more rows

sector_profile |>
  unnest_company() |>
  print() |>
  write_csv(path(params$output, "sector_profile_at_company_level.csv"))
#> # A tibble: 864 × 12
#>    companies_id        company_name country sector_profile_share sector_profile scenario year  matching_certainty_company_average company_city postcode address main_activity
#>    <chr>               <chr>        <chr>                  <dbl> <chr>          <chr>    <chr> <chr>                              <chr>        <chr>    <chr>   <chr>        
#>  1 antimonarchy_canine NA           NA                         0 high           1.5C RPS 2030  NA                                 NA           NA       NA      NA           
#>  2 antimonarchy_canine NA           NA                         1 medium         1.5C RPS 2030  NA                                 NA           NA       NA      NA           
#>  3 antimonarchy_canine NA           NA                         0 low            1.5C RPS 2030  NA                                 NA           NA       NA      NA           
#>  4 antimonarchy_canine NA           NA                         1 high           1.5C RPS 2050  NA                                 NA           NA       NA      NA           
#>  5 antimonarchy_canine NA           NA                         0 medium         1.5C RPS 2050  NA                                 NA           NA       NA      NA           
#>  6 antimonarchy_canine NA           NA                         0 low            1.5C RPS 2050  NA                                 NA           NA       NA      NA           
#>  7 antimonarchy_canine NA           NA                         1 high           NZ 2050  2030  NA                                 NA           NA       NA      NA           
#>  8 antimonarchy_canine NA           NA                         0 medium         NZ 2050  2030  NA                                 NA           NA       NA      NA           
#>  9 antimonarchy_canine NA           NA                         0 low            NZ 2050  2030  NA                                 NA           NA       NA      NA           
#> 10 antimonarchy_canine NA           NA                         1 high           NZ 2050  2050  NA                                 NA           NA       NA      NA           
#> # ℹ 854 more rows
…
