profile_emissions.Rmd • tiltWorkflows
…
Results

For this TILT indicator, compute results both at product and company
level.

emissions_profile |>
  unnest_product() |>
  print() |> 
  write_csv(path(params$output, "emissions_profile_at_product_level.csv"))
#> # A tibble: 49 × 26
#>    companies_id                             company_name country PCTR_risk_category benchmark        ep_product matched_activity_name matched_reference_product unit  multi_match matching_certainty matching_certainty_company_average tilt_sector tilt_subsector isic_4digit isic_4digit_name company_city postcode address main_activity activity_uuid_product_uuid                                                profile_ranking extra_rowid ep_id category geography
#>    <chr>                                    <chr>        <chr>   <chr>              <chr>            <chr>      <chr>                 <chr>                     <chr> <lgl>       <chr>              <chr>                              <chr>       <chr>          <chr>       <chr>            <chr>           <dbl> <chr>   <chr>         <chr>                                                                               <dbl>       <int> <chr> <chr>    <chr>    
#>  1 fleischerei-stiefsohn_00000005219477-001 NA           NA      high               all              stove      NA                    NA                        NA    NA          NA                 NA                                 Industry    Other          '2560'      NA               NA                 NA NA      NA            0a242b09-772a-5edf-8e82-9cb4ba52a258_ae39ee61-d4d0-4cce-93b4-0745344da5fa           1               1 NA    NA       NA       
#>  2 fleischerei-stiefsohn_00000005219477-001 NA           NA      high               isic_4digit      stove      NA                    NA                        NA    NA          NA                 NA                                 Industry    Other          '2560'      NA               NA                 NA NA      NA            0a242b09-772a-5edf-8e82-9cb4ba52a258_ae39ee61-d4d0-4cce-93b4-0745344da5fa           1               1 NA    NA       NA       
#>  3 fleischerei-stiefsohn_00000005219477-001 NA           NA      high               tilt_sector      stove      NA                    NA                        NA    NA          NA                 NA                                 Industry    Other          '2560'      NA               NA                 NA NA      NA            0a242b09-772a-5edf-8e82-9cb4ba52a258_ae39ee61-d4d0-4cce-93b4-0745344da5fa           1               1 NA    NA       NA       
#>  4 fleischerei-stiefsohn_00000005219477-001 NA           NA      high               unit             stove      NA                    NA                        NA    NA          NA                 NA                                 Industry    Other          '2560'      NA               NA                 NA NA      NA            0a242b09-772a-5edf-8e82-9cb4ba52a258_ae39ee61-d4d0-4cce-93b4-0745344da5fa           1               1 NA    NA       NA       
#>  5 fleischerei-stiefsohn_00000005219477-001 NA           NA      high               unit_isic_4digit stove      NA                    NA                        NA    NA          NA                 NA                                 Industry    Other          '2560'      NA               NA                 NA NA      NA            0a242b09-772a-5edf-8e82-9cb4ba52a258_ae39ee61-d4d0-4cce-93b4-0745344da5fa           1               1 NA    NA       NA       
#>  6 fleischerei-stiefsohn_00000005219477-001 NA           NA      high               unit_tilt_sector stove      NA                    NA                        NA    NA          NA                 NA                                 Industry    Other          '2560'      NA               NA                 NA NA      NA            0a242b09-772a-5edf-8e82-9cb4ba52a258_ae39ee61-d4d0-4cce-93b4-0745344da5fa           1               1 NA    NA       NA       
#>  7 fleischerei-stiefsohn_00000005219477-001 NA           NA      high               all              oven       NA                    NA                        NA    NA          NA                 NA                                 Industry    Other          '2560'      NA               NA                 NA NA      NA            be06d25c-73dc-55fb-965b-0f300453e380_98b48ff2-2200-4b08-9dec-9c7c0e3585bc           0.8             2 NA    NA       NA       
#>  8 fleischerei-stiefsohn_00000005219477-001 NA           NA      medium             isic_4digit      oven       NA                    NA                        NA    NA          NA                 NA                                 Industry    Other          '2560'      NA               NA                 NA NA      NA            be06d25c-73dc-55fb-965b-0f300453e380_98b48ff2-2200-4b08-9dec-9c7c0e3585bc           0.5             2 NA    NA       NA       
#>  9 fleischerei-stiefsohn_00000005219477-001 NA           NA      medium             tilt_sector      oven       NA                    NA                        NA    NA          NA                 NA                                 Industry    Other          '2560'      NA               NA                 NA NA      NA            be06d25c-73dc-55fb-965b-0f300453e380_98b48ff2-2200-4b08-9dec-9c7c0e3585bc           0.667           2 NA    NA       NA       
#> 10 fleischerei-stiefsohn_00000005219477-001 NA           NA      medium             unit             oven       NA                    NA                        NA    NA          NA                 NA                                 Industry    Other          '2560'      NA               NA                 NA NA      NA            be06d25c-73dc-55fb-965b-0f300453e380_98b48ff2-2200-4b08-9dec-9c7c0e3585bc           0.5             2 NA    NA       NA       
#> # ℹ 39 more rows

emissions_profile |>
  unnest_company() |>
  print() |> 
  write_csv(path(params$output, "emissions_profile_at_company_level.csv"))
#> # A tibble: 129 × 11
#>    companies_id                             company_name country PCTR_share PCTR_risk_category benchmark matching_certainty_company_average company_city postcode address main_activity
#>    <chr>                                    <chr>        <chr>        <dbl> <lgl>              <lgl>     <chr>                              <chr>           <dbl> <chr>   <chr>        
#>  1 fleischerei-stiefsohn_00000005219477-001 NA           NA             1   NA                 NA        NA                                 NA                 NA NA      NA           
#>  2 fleischerei-stiefsohn_00000005219477-001 NA           NA             0   NA                 NA        NA                                 NA                 NA NA      NA           
#>  3 fleischerei-stiefsohn_00000005219477-001 NA           NA             0   NA                 NA        NA                                 NA                 NA NA      NA           
#>  4 fleischerei-stiefsohn_00000005219477-001 NA           NA             0.5 NA                 NA        NA                                 NA                 NA NA      NA           
#>  5 fleischerei-stiefsohn_00000005219477-001 NA           NA             0.5 NA                 NA        NA                                 NA                 NA NA      NA           
#>  6 fleischerei-stiefsohn_00000005219477-001 NA           NA             0   NA                 NA        NA                                 NA                 NA NA      NA           
#>  7 fleischerei-stiefsohn_00000005219477-001 NA           NA             0.5 NA                 NA        NA                                 NA                 NA NA      NA           
#>  8 fleischerei-stiefsohn_00000005219477-001 NA           NA             0.5 NA                 NA        NA                                 NA                 NA NA      NA           
#>  9 fleischerei-stiefsohn_00000005219477-001 NA           NA             0   NA                 NA        NA                                 NA                 NA NA      NA           
#> 10 fleischerei-stiefsohn_00000005219477-001 NA           NA             0.5 NA                 NA        NA                                 NA                 NA NA      NA           
#> # ℹ 119 more rows
…
