Run all `profile*()` functions • tiltWorkflows
…
emissions_profile |> 
  unnest_product() |> 
  write_csv(path(params$output, "emissions_profile_at_product_level.csv")) |> 
  print()
#> # A tibble: 49 × 26
#>    companies_id                             company_name country PCTR_risk_category benchmark        ep_product matched_activity_name matched_reference_product unit  multi_match matching_certainty matching_certainty_company_average tilt_sector tilt_subsector isic_4digit isic_4digit_name company_city postcode address main_activity activity_uuid_product_uuid                                                profile_ranking extra_rowid ep_id category geography
#>    <chr>                                    <chr>        <chr>   <chr>              <chr>            <chr>      <chr>                 <chr>                     <chr> <lgl>       <chr>              <chr>                              <chr>       <chr>          <chr>       <chr>            <chr>           <dbl> <chr>   <chr>         <chr>                                                                               <dbl>       <int> <chr> <chr>    <chr>    
#>  1 fleischerei-stiefsohn_00000005219477-001 NA           NA      high               all              stove      NA                    NA                        NA    NA          NA                 NA                                 Industry    Other          '2560'      NA               NA                 NA NA      NA            0a242b09-772a-5edf-8e82-9cb4ba52a258_ae39ee61-d4d0-4cce-93b4-0745344da5fa           1               1 NA    NA       NA       
#>  2 fleischerei-stiefsohn_00000005219477-001 NA           NA      high               isic_4digit      stove      NA                    NA                        NA    NA          NA                 NA                                 Industry    Other          '2560'      NA               NA                 NA NA      NA            0a242b09-772a-5edf-8e82-9cb4ba52a258_ae39ee61-d4d0-4cce-93b4-0745344da5fa           1               1 NA    NA       NA       
#>  3 fleischerei-stiefsohn_00000005219477-001 NA           NA      high               tilt_sector      stove      NA                    NA                        NA    NA          NA                 NA                                 Industry    Other          '2560'      NA               NA                 NA NA      NA            0a242b09-772a-5edf-8e82-9cb4ba52a258_ae39ee61-d4d0-4cce-93b4-0745344da5fa           1               1 NA    NA       NA       
#>  4 fleischerei-stiefsohn_00000005219477-001 NA           NA      high               unit             stove      NA                    NA                        NA    NA          NA                 NA                                 Industry    Other          '2560'      NA               NA                 NA NA      NA            0a242b09-772a-5edf-8e82-9cb4ba52a258_ae39ee61-d4d0-4cce-93b4-0745344da5fa           1               1 NA    NA       NA       
#>  5 fleischerei-stiefsohn_00000005219477-001 NA           NA      high               unit_isic_4digit stove      NA                    NA                        NA    NA          NA                 NA                                 Industry    Other          '2560'      NA               NA                 NA NA      NA            0a242b09-772a-5edf-8e82-9cb4ba52a258_ae39ee61-d4d0-4cce-93b4-0745344da5fa           1               1 NA    NA       NA       
#>  6 fleischerei-stiefsohn_00000005219477-001 NA           NA      high               unit_tilt_sector stove      NA                    NA                        NA    NA          NA                 NA                                 Industry    Other          '2560'      NA               NA                 NA NA      NA            0a242b09-772a-5edf-8e82-9cb4ba52a258_ae39ee61-d4d0-4cce-93b4-0745344da5fa           1               1 NA    NA       NA       
#>  7 fleischerei-stiefsohn_00000005219477-001 NA           NA      high               all              oven       NA                    NA                        NA    NA          NA                 NA                                 Industry    Other          '2560'      NA               NA                 NA NA      NA            be06d25c-73dc-55fb-965b-0f300453e380_98b48ff2-2200-4b08-9dec-9c7c0e3585bc           0.8             2 NA    NA       NA       
#>  8 fleischerei-stiefsohn_00000005219477-001 NA           NA      medium             isic_4digit      oven       NA                    NA                        NA    NA          NA                 NA                                 Industry    Other          '2560'      NA               NA                 NA NA      NA            be06d25c-73dc-55fb-965b-0f300453e380_98b48ff2-2200-4b08-9dec-9c7c0e3585bc           0.5             2 NA    NA       NA       
#>  9 fleischerei-stiefsohn_00000005219477-001 NA           NA      medium             tilt_sector      oven       NA                    NA                        NA    NA          NA                 NA                                 Industry    Other          '2560'      NA               NA                 NA NA      NA            be06d25c-73dc-55fb-965b-0f300453e380_98b48ff2-2200-4b08-9dec-9c7c0e3585bc           0.667           2 NA    NA       NA       
#> 10 fleischerei-stiefsohn_00000005219477-001 NA           NA      medium             unit             oven       NA                    NA                        NA    NA          NA                 NA                                 Industry    Other          '2560'      NA               NA                 NA NA      NA            be06d25c-73dc-55fb-965b-0f300453e380_98b48ff2-2200-4b08-9dec-9c7c0e3585bc           0.5             2 NA    NA       NA       
#> # ℹ 39 more rows

emissions_profile |> 
  unnest_company() |> 
  write_csv(path(params$output, "emissions_profile_at_company_level.csv")) |> 
  print()
#> # A tibble: 129 × 11
#>    companies_id                             company_name country PCTR_share PCTR_risk_category benchmark matching_certainty_company_average company_city postcode address main_activity
#>    <chr>                                    <chr>        <chr>        <dbl> <lgl>              <lgl>     <chr>                              <chr>           <dbl> <chr>   <chr>        
#>  1 fleischerei-stiefsohn_00000005219477-001 NA           NA             1   NA                 NA        NA                                 NA                 NA NA      NA           
#>  2 fleischerei-stiefsohn_00000005219477-001 NA           NA             0   NA                 NA        NA                                 NA                 NA NA      NA           
#>  3 fleischerei-stiefsohn_00000005219477-001 NA           NA             0   NA                 NA        NA                                 NA                 NA NA      NA           
#>  4 fleischerei-stiefsohn_00000005219477-001 NA           NA             0.5 NA                 NA        NA                                 NA                 NA NA      NA           
#>  5 fleischerei-stiefsohn_00000005219477-001 NA           NA             0.5 NA                 NA        NA                                 NA                 NA NA      NA           
#>  6 fleischerei-stiefsohn_00000005219477-001 NA           NA             0   NA                 NA        NA                                 NA                 NA NA      NA           
#>  7 fleischerei-stiefsohn_00000005219477-001 NA           NA             0.5 NA                 NA        NA                                 NA                 NA NA      NA           
#>  8 fleischerei-stiefsohn_00000005219477-001 NA           NA             0.5 NA                 NA        NA                                 NA                 NA NA      NA           
#>  9 fleischerei-stiefsohn_00000005219477-001 NA           NA             0   NA                 NA        NA                                 NA                 NA NA      NA           
#> 10 fleischerei-stiefsohn_00000005219477-001 NA           NA             0.5 NA                 NA        NA                                 NA                 NA NA      NA           
#> # ℹ 119 more rows
…
emissions_profile_upstream |> 
  unnest_product() |> 
  write_csv(path(params$output, "emissions_profile_upstream_at_product_level.csv")) |> 
  print()
#> # A tibble: 319 × 27
#>    companies_id                             company_name country ICTR_risk_category benchmark         ep_product matched_activity_name matched_reference_product unit  multi_match matching_certainty matching_certainty_company_average input_name input_unit input_tilt_sector input_tilt_subsector input_isic_4digit input_isic_4digit_name company_city postcode address main_activity activity_uuid_product_uuid                                                profile_ranking extra_rowid ep_id category
#>    <chr>                                    <chr>        <chr>   <chr>              <chr>             <chr>      <chr>                 <chr>                     <chr> <lgl>       <chr>              <chr>                              <chr>      <chr>      <chr>             <chr>                <chr>             <chr>                  <chr>           <dbl> <chr>   <chr>         <chr>                                                                               <dbl>       <int> <chr> <chr>   
#>  1 fleischerei-stiefsohn_00000005219477-001 NA           NA      high               all               stove      NA                    NA                        NA    NA          NA                 NA                                 NA         NA         Inudstry          Other                '2560'            NA                     NA                 NA NA      NA            0a242b09-772a-5edf-8e82-9cb4ba52a258_ae39ee61-d4d0-4cce-93b4-0745344da5fa          0.909            1 NA    NA      
#>  2 fleischerei-stiefsohn_00000005219477-001 NA           NA      high               all               stove      NA                    NA                        NA    NA          NA                 NA                                 NA         NA         Inudstry          Other                '2560'            NA                     NA                 NA NA      NA            0a242b09-772a-5edf-8e82-9cb4ba52a258_ae39ee61-d4d0-4cce-93b4-0745344da5fa          1                2 NA    NA      
#>  3 fleischerei-stiefsohn_00000005219477-001 NA           NA      medium             all               stove      NA                    NA                        NA    NA          NA                 NA                                 NA         NA         Inudstry          Other                '2560'            NA                     NA                 NA NA      NA            0a242b09-772a-5edf-8e82-9cb4ba52a258_ae39ee61-d4d0-4cce-93b4-0745344da5fa          0.636            3 NA    NA      
#>  4 fleischerei-stiefsohn_00000005219477-001 NA           NA      high               all               stove      NA                    NA                        NA    NA          NA                 NA                                 NA         NA         Inudstry          Other                '2560'            NA                     NA                 NA NA      NA            0a242b09-772a-5edf-8e82-9cb4ba52a258_ae39ee61-d4d0-4cce-93b4-0745344da5fa          0.758            4 NA    NA      
#>  5 fleischerei-stiefsohn_00000005219477-001 NA           NA      high               all               stove      NA                    NA                        NA    NA          NA                 NA                                 NA         NA         Inudstry          Other                '2560'            NA                     NA                 NA NA      NA            0a242b09-772a-5edf-8e82-9cb4ba52a258_ae39ee61-d4d0-4cce-93b4-0745344da5fa          0.970            5 NA    NA      
#>  6 fleischerei-stiefsohn_00000005219477-001 NA           NA      low                all               stove      NA                    NA                        NA    NA          NA                 NA                                 NA         NA         Inudstry          Other                '2560'            NA                     NA                 NA NA      NA            0a242b09-772a-5edf-8e82-9cb4ba52a258_ae39ee61-d4d0-4cce-93b4-0745344da5fa          0.0909           6 NA    NA      
#>  7 fleischerei-stiefsohn_00000005219477-001 NA           NA      low                all               stove      NA                    NA                        NA    NA          NA                 NA                                 NA         NA         Inudstry          Other                '2560'            NA                     NA                 NA NA      NA            0a242b09-772a-5edf-8e82-9cb4ba52a258_ae39ee61-d4d0-4cce-93b4-0745344da5fa          0.121            7 NA    NA      
#>  8 fleischerei-stiefsohn_00000005219477-001 NA           NA      high               all               stove      NA                    NA                        NA    NA          NA                 NA                                 NA         NA         Inudstry          Other                '2560'            NA                     NA                 NA NA      NA            0a242b09-772a-5edf-8e82-9cb4ba52a258_ae39ee61-d4d0-4cce-93b4-0745344da5fa          0.697            8 NA    NA      
#>  9 fleischerei-stiefsohn_00000005219477-001 NA           NA      high               input_isic_4digit stove      NA                    NA                        NA    NA          NA                 NA                                 NA         NA         Inudstry          Other                '2560'            NA                     NA                 NA NA      NA            0a242b09-772a-5edf-8e82-9cb4ba52a258_ae39ee61-d4d0-4cce-93b4-0745344da5fa          0.857            1 NA    NA      
#> 10 fleischerei-stiefsohn_00000005219477-001 NA           NA      high               input_isic_4digit stove      NA                    NA                        NA    NA          NA                 NA                                 NA         NA         Inudstry          Other                '2560'            NA                     NA                 NA NA      NA            0a242b09-772a-5edf-8e82-9cb4ba52a258_ae39ee61-d4d0-4cce-93b4-0745344da5fa          1                2 NA    NA      
#> # ℹ 309 more rows

emissions_profile_upstream |> 
  unnest_company() |> 
  write_csv(path(params$output, "emissions_profile_upstream_at_company_level.csv")) |> 
  print()
#> # A tibble: 127 × 11
#>    companies_id                             company_name company_city country ICTR_share ICTR_risk_category benchmark         matching_certainty_company_average postcode address main_activity
#>    <chr>                                    <chr>        <chr>        <chr>        <dbl> <chr>              <chr>             <chr>                                 <dbl> <chr>   <chr>        
#>  1 fleischerei-stiefsohn_00000005219477-001 NA           NA           NA           0.571 high               all               NA                                       NA NA      NA           
#>  2 fleischerei-stiefsohn_00000005219477-001 NA           NA           NA           0.214 medium             all               NA                                       NA NA      NA           
#>  3 fleischerei-stiefsohn_00000005219477-001 NA           NA           NA           0.214 low                all               NA                                       NA NA      NA           
#>  4 fleischerei-stiefsohn_00000005219477-001 NA           NA           NA           0.357 high               input_isic_4digit NA                                       NA NA      NA           
#>  5 fleischerei-stiefsohn_00000005219477-001 NA           NA           NA           0.357 medium             input_isic_4digit NA                                       NA NA      NA           
#>  6 fleischerei-stiefsohn_00000005219477-001 NA           NA           NA           0.286 low                input_isic_4digit NA                                       NA NA      NA           
#>  7 fleischerei-stiefsohn_00000005219477-001 NA           NA           NA           0.429 high               input_tilt_sector NA                                       NA NA      NA           
#>  8 fleischerei-stiefsohn_00000005219477-001 NA           NA           NA           0.357 medium             input_tilt_sector NA                                       NA NA      NA           
#>  9 fleischerei-stiefsohn_00000005219477-001 NA           NA           NA           0.214 low                input_tilt_sector NA                                       NA NA      NA           
#> 10 fleischerei-stiefsohn_00000005219477-001 NA           NA           NA           0.429 high               input_unit        NA                                       NA NA      NA           
#> # ℹ 117 more rows
…
